[
	{
		"Id_code": "U-01:BA",
		"Name": "Web Development",
		"Learning_outcomes": ["LO1", "LO2"],
		"Exit_awards": ["EA01", "EA02"],
		"Modules": ["M01", "M02"],
		"Module_Assessments": ["A01", "A02", "A03", "A04"]
	},
	{
		"Id_code": "U-02:BA",
		"Name": "Computer Science",
		"Learning_outcomes": ["LO1", "LO2"],
		"Exit_awards": ["EA01", "EA02"],
		"Modules": ["M03", "M04"],
		"Module_Assessments": ["A05", "A06", "A07", "A08"]
	},
	{
		"Id_code": "U-01:BA",
		"Name": "Programming",
		"Learning_outcomes": ["LO1", "LO2"],
		"Exit_awards": ["EA01", "EA02"],
		"Modules": ["M05", "M06"],
		"Module_Assessments": ["A09", "A10", "A11", "A12"]
	}
]
